---
http_interactions:
- request:
    method: get
    uri: http://localhost:3001/api/case_workers/claims?api_key=5a0a95de-f4f4-49ad-b1a5-be072e1b9c14&direction=asc&limit=2&page=0&search=&sorting=last_submitted_at&status=allocated
    body:
      encoding: US-ASCII
      string: ''
    headers:
      Accept:
      - "*/*; q=0.5, application/xml"
      Accept-Encoding:
      - gzip, deflate
      User-Agent:
      - Ruby
  response:
    status:
      code: 200
      message: 'OK '
    headers:
      Content-Type:
      - application/json
      Content-Length:
      - '1713'
      Etag:
      - W/"eadb7dd4aeb95c972bc5d9bfa62e514e"
      Cache-Control:
      - max-age=0, private, must-revalidate
      X-Request-Id:
      - 8ed00591-0ecf-4c45-9764-ef2ede7df795
      X-Runtime:
      - '1.118904'
      Server:
      - WEBrick/1.3.1 (Ruby/2.3.0/2015-12-25)
      Date:
      - Thu, 06 Oct 2016 16:30:16 GMT
      Connection:
      - Keep-Alive
    body:
      encoding: UTF-8
      string: '{"pagination":{"current_page":1,"total_pages":2,"total_count":3,"limit_value":2},"items":[{"id":2,"uuid":"6b881ce0-9356-495d-a22f-70b3e5f06cb2","case_number":"A00000002","state":"allocated","type":"Claim::AdvocateClaim","last_submitted_at":"2016-10-05T16:30:14.321Z","total":26.0,"vat_amount":4.55,"opened_for_redetermination":false,"written_reasons_outstanding":false,"messages_count":0,"unread_messages_count":0,"external_user":{"id":2,"uuid":"4550f861-3236-4e13-9174-e792198eb6b2","first_name":"Rafael","last_name":"Purdy"},"defendants":[{"id":2,"uuid":"d764cd1a-5785-4fd4-a9bf-e96ae5f91184","first_name":"Salvador","last_name":"Beahan"}],"case_type":{"id":2,"name":"Case
        Type 2","is_fixed_fee":false,"requires_cracked_dates":false,"requires_trial_dates":false,"allow_pcmh_fee_type":false,"requires_maat_reference":true,"requires_retrial_dates":false,"roles":["agfs","lgfs"],"fee_type_code":null}},{"id":1,"uuid":"0d7e6989-9698-4137-8584-e34062bd45d2","case_number":"A00000001","state":"allocated","type":"Claim::AdvocateClaim","last_submitted_at":"2016-10-06T16:30:13.633Z","total":25.0,"vat_amount":4.38,"opened_for_redetermination":false,"written_reasons_outstanding":false,"messages_count":0,"unread_messages_count":0,"external_user":{"id":1,"uuid":"a90cfa36-0ee2-4e3d-8ebd-c3a81fc8e77f","first_name":"Selina","last_name":"Rowe"},"defendants":[{"id":1,"uuid":"44155503-651e-4174-aa2d-954623c66485","first_name":"Pascale","last_name":"Eichmann"}],"case_type":{"id":1,"name":"Case
        Type 1","is_fixed_fee":false,"requires_cracked_dates":false,"requires_trial_dates":false,"allow_pcmh_fee_type":false,"requires_maat_reference":true,"requires_retrial_dates":false,"roles":["agfs","lgfs"],"fee_type_code":null}}]}'
    http_version: 
  recorded_at: Thu, 06 Oct 2016 16:30:16 GMT
recorded_with: VCR 3.0.3
